<?xml version="1.0" encoding="utf-8"?>
<!-- Generator: Adobe Illustrator 19.2.0, SVG Export Plug-In . SVG Version: 6.00 Build 0)  -->
<svg version="1.1" id="Layer_1" xmlns:sketch="http://www.bohemiancoding.com/sketch/ns"
	 xmlns="http://www.w3.org/2000/svg" xmlns:xlink="http://www.w3.org/1999/xlink" x="0px" y="0px" viewBox="0 0 15 15"
	 style="enable-background:new 0 0 15 15;" xml:space="preserve">
<style type="text/css">
	.st0{fill:#C9C9C9;}
</style>
<title>i0140_search-16</title>
<desc>Created with Sketch.</desc>
<g id="Page-1" sketch:type="MSPage">
	<g id="atlasdash-v3" transform="translate(-421.000000, -86.000000)" sketch:type="MSArtboardGroup">
		<g id="i0140_x5F_search-16-_x2B_-Filter-_x2B_-Line" transform="translate(420.000000, 84.000000)" sketch:type="MSLayerGroup">
			<g id="i0140_x5F_search-16-_x2B_-Filter" transform="translate(1.000000, 0.000000)" sketch:type="MSShapeGroup">
				<path class="st0" d="M14.3,14.3l-4-4C10.7,9.5,11,8.5,11,7.5C11,4.4,8.6,2,5.5,2C2.4,2,0,4.4,0,7.5C0,10.6,2.4,13,5.5,13
					c0.9,0,2-0.3,2.8-0.7l4,4c0.4,0.4,1,0.4,1.4,0l0.6-0.6C14.7,15.3,14.7,14.7,14.3,14.3z M5.5,11.5c-2.2,0-4-1.8-4-4s1.8-4,4-4
					s4,1.8,4,4S7.7,11.5,5.5,11.5z"/>
			</g>
		</g>
	</g>
</g>
</svg>
